{
  "dataType": "HOLL",
  "magnetID": "EPRO700",
  "isInside": 0,
  "sizeX": 170,
  "sizeY": 415,
  "operatorID": "26A5B64D95447269BED200360DB0F0B2",
  "recordID": "C47B8A89A2509DDA279946AB264D279A",
  "recordPosition": 43970,
  "user_h0": "",
  "selection": {
    "x_left": 14,
    "x_right": 20,
    "calc_row": 17,
    "y_top": 25,
    "y_bottom": 30,
    "calc_col": 27
  },
  "dataRow": [
    [639, 638, 654, 651, 636, 650, 654, 632, 603, 617, 608, 631, 625, 617, 617, 625, 590, 594, 606, 604, 611, 597, 595, 603, 695, 695, 690, 694, 688, 697, 695, 661, 675, 672, 678, 674, 700, 665, 666, 666, 577, 595, 608, 601, 602, 602, 576]
,    [640, 639, 655, 651, 638, 651, 655, 633, 605, 618, 610, 632, 627, 619, 619, 627, 592, 595, 608, 605, 613, 598, 596, 604, 697, 697, 691, 696, 689, 698, 697, 662, 676, 673, 678, 675, 701, 666, 666, 667, 578, 596, 608, 601, 603, 602, 576]
,    [641, 640, 655, 652, 638, 652, 655, 634, 606, 619, 609, 631, 627, 620, 619, 628, 593, 597, 609, 606, 614, 599, 597, 605, 698, 699, 692, 697, 691, 699, 697, 663, 677, 674, 679, 676, 702, 668, 667, 668, 578, 597, 609, 602, 604, 604, 576]
,    [641, 640, 655, 651, 638, 651, 655, 633, 606, 618, 610, 631, 627, 619, 619, 628, 594, 598, 610, 607, 614, 599, 598, 605, 699, 699, 694, 698, 692, 701, 698, 664, 678, 674, 679, 676, 702, 667, 667, 668, 578, 597, 609, 603, 606, 604, 577]
,    [639, 637, 654, 650, 636, 650, 653, 631, 604, 616, 608, 631, 626, 618, 619, 628, 595, 598, 611, 608, 615, 600, 598, 606, 700, 700, 694, 698, 693, 701, 699, 664, 678, 675, 680, 676, 703, 668, 668, 669, 579, 598, 610, 604, 606, 605, 577]
,    [637, 635, 652, 650, 635, 649, 652, 629, 603, 616, 607, 630, 626, 619, 619, 629, 595, 599, 612, 608, 615, 601, 598, 606, 700, 700, 694, 698, 692, 701, 699, 664, 678, 675, 680, 676, 703, 668, 668, 669, 580, 598, 611, 604, 606, 605, 578]
,    [635, 632, 650, 647, 633, 647, 651, 629, 603, 616, 609, 632, 627, 619, 619, 628, 595, 599, 611, 609, 615, 600, 598, 605, 699, 699, 694, 698, 692, 700, 698, 664, 678, 675, 680, 676, 703, 668, 668, 669, 579, 598, 611, 604, 606, 605, 577]
,    [633, 631, 647, 645, 630, 645, 649, 627, 603, 616, 609, 631, 627, 618, 617, 626, 593, 597, 610, 607, 615, 599, 596, 604, 697, 698, 692, 697, 691, 699, 698, 663, 678, 674, 680, 676, 703, 668, 668, 668, 579, 598, 610, 603, 606, 605, 577]
,    [634, 632, 648, 645, 631, 645, 648, 627, 602, 615, 608, 631, 627, 619, 617, 626, 592, 595, 608, 606, 613, 597, 595, 602, 697, 696, 692, 695, 689, 699, 698, 663, 678, 674, 679, 676, 702, 667, 667, 667, 578, 597, 609, 603, 605, 604, 577]
,    [633, 631, 648, 646, 631, 645, 649, 627, 600, 614, 607, 629, 625, 617, 616, 625, 590, 595, 607, 604, 611, 596, 594, 601, 694, 694, 689, 693, 688, 698, 696, 662, 676, 672, 678, 675, 702, 667, 667, 667, 577, 596, 608, 602, 604, 603, 576]
,    [632, 630, 647, 645, 631, 645, 649, 627, 600, 614, 605, 628, 623, 616, 615, 624, 590, 593, 606, 603, 610, 595, 592, 599, 692, 692, 686, 691, 685, 695, 694, 661, 675, 671, 678, 674, 701, 666, 666, 667, 577, 596, 608, 602, 603, 603, 575]
,    [631, 630, 647, 643, 629, 644, 648, 626, 600, 613, 605, 627, 622, 613, 613, 622, 589, 593, 604, 602, 609, 594, 591, 599, 690, 690, 684, 689, 683, 692, 692, 659, 675, 671, 678, 674, 701, 666, 666, 666, 577, 595, 607, 601, 603, 602, 575]
,    [631, 630, 646, 643, 629, 643, 647, 625, 599, 612, 603, 626, 621, 613, 612, 622, 589, 593, 604, 602, 609, 595, 593, 601, 690, 689, 682, 686, 681, 692, 693, 660, 676, 672, 679, 675, 700, 666, 666, 666, 577, 595, 607, 600, 602, 601, 575]
,    [630, 630, 647, 644, 631, 644, 647, 625, 599, 611, 603, 625, 621, 613, 613, 622, 589, 593, 606, 603, 611, 597, 596, 605, 693, 692, 685, 688, 683, 694, 694, 662, 676, 674, 680, 676, 700, 666, 666, 666, 577, 594, 606, 599, 601, 599, 575]
,    [630, 630, 647, 644, 632, 644, 647, 625, 599, 610, 602, 624, 620, 612, 613, 622, 590, 595, 607, 605, 613, 600, 600, 610, 702, 702, 696, 700, 694, 704, 702, 667, 677, 674, 681, 677, 699, 665, 665, 664, 579, 594, 606, 599, 599, 599, 577]
,    [629, 629, 646, 643, 630, 643, 647, 625, 598, 610, 603, 625, 621, 614, 615, 624, 591, 596, 608, 607, 616, 602, 602, 614, 713, 718, 717, 723, 716, 719, 713, 673, 681, 677, 682, 678, 700, 665, 665, 664, 577, 593, 605, 597, 597, 597, 575]
,    [629, 628, 644, 640, 628, 642, 646, 625, 599, 611, 603, 627, 622, 615, 616, 624, 592, 597, 609, 608, 617, 604, 604, 615, 721, 729, 733, 742, 732, 731, 719, 677, 683, 678, 683, 678, 700, 665, 665, 664, 576, 592, 604, 597, 597, 597, 573]
,    [629, 628, 644, 641, 627, 642, 646, 625, 600, 612, 604, 627, 622, 615, 615, 624, 592, 597, 609, 607, 617, 604, 604, 615, 721, 730, 733, 743, 733, 732, 720, 678, 683, 678, 683, 678, 701, 665, 665, 664, 575, 592, 604, 597, 597, 597, 572]
,    [629, 627, 644, 641, 628, 643, 647, 625, 601, 615, 607, 630, 625, 617, 617, 625, 593, 597, 609, 607, 616, 602, 602, 611, 717, 724, 725, 733, 724, 726, 718, 676, 682, 677, 682, 678, 700, 665, 664, 664, 575, 592, 603, 596, 597, 597, 571]
,    [630, 629, 645, 643, 630, 644, 648, 627, 603, 615, 607, 631, 626, 618, 618, 625, 592, 597, 609, 606, 614, 599, 598, 606, 705, 707, 700, 705, 700, 710, 707, 670, 678, 675, 681, 676, 700, 664, 664, 664, 574, 591, 603, 596, 597, 596, 570]
,    [632, 630, 647, 645, 632, 646, 650, 629, 602, 614, 607, 630, 625, 618, 617, 625, 591, 595, 607, 605, 611, 596, 593, 601, 694, 692, 683, 686, 683, 695, 697, 663, 675, 672, 678, 674, 698, 663, 663, 663, 574, 591, 602, 597, 598, 596, 569]
,    [633, 631, 648, 646, 632, 647, 651, 629, 602, 614, 605, 628, 624, 617, 616, 624, 591, 594, 605, 602, 608, 593, 590, 596, 686, 684, 674, 678, 674, 687, 690, 658, 671, 669, 676, 672, 697, 662, 662, 662, 572, 590, 602, 595, 597, 596, 569]
,    [632, 630, 647, 644, 631, 646, 650, 629, 601, 614, 606, 627, 622, 614, 614, 622, 589, 592, 603, 600, 606, 590, 588, 593, 682, 681, 673, 678, 673, 684, 686, 654, 668, 666, 673, 670, 695, 661, 660, 661, 572, 589, 601, 594, 596, 595, 568]
,    [631, 630, 646, 642, 628, 642, 646, 625, 601, 614, 605, 627, 621, 613, 613, 620, 588, 590, 601, 597, 603, 588, 585, 591, 681, 682, 675, 680, 675, 685, 686, 652, 667, 664, 671, 669, 694, 660, 660, 660, 571, 589, 601, 594, 596, 595, 567]
,    [631, 630, 646, 642, 628, 642, 645, 623, 599, 612, 604, 626, 621, 612, 611, 619, 586, 588, 599, 596, 601, 586, 583, 590, 681, 682, 676, 681, 676, 686, 685, 652, 667, 664, 670, 668, 693, 658, 659, 659, 570, 588, 600, 593, 595, 594, 567]
,    [630, 629, 646, 642, 628, 642, 645, 623, 598, 609, 602, 625, 621, 612, 611, 619, 585, 587, 598, 594, 601, 585, 583, 590, 682, 682, 677, 682, 676, 686, 685, 652, 666, 663, 669, 666, 692, 657, 658, 658, 569, 587, 599, 593, 595, 594, 566]
,    [630, 629, 646, 643, 629, 643, 648, 627, 598, 611, 602, 624, 620, 611, 611, 619, 584, 586, 598, 594, 600, 585, 583, 589, 682, 682, 677, 682, 676, 686, 685, 652, 665, 662, 668, 665, 692, 657, 657, 657, 569, 586, 599, 592, 595, 593, 566]
,    [630, 629, 646, 645, 631, 645, 649, 628, 599, 611, 603, 625, 620, 611, 611, 619, 584, 586, 597, 594, 600, 585, 582, 589, 681, 682, 677, 681, 676, 685, 685, 651, 664, 661, 667, 664, 691, 656, 656, 656, 568, 586, 598, 591, 594, 593, 566]
,    [630, 630, 647, 645, 631, 645, 649, 627, 599, 612, 603, 624, 620, 611, 610, 619, 584, 587, 598, 594, 600, 585, 582, 590, 681, 682, 676, 681, 675, 684, 684, 650, 663, 660, 667, 664, 690, 656, 656, 656, 567, 585, 597, 591, 593, 592, 565]
,    [631, 630, 647, 644, 630, 644, 647, 624, 599, 610, 602, 624, 619, 612, 610, 619, 584, 587, 598, 595, 600, 585, 583, 590, 681, 681, 676, 680, 675, 684, 683, 650, 663, 660, 666, 663, 689, 655, 655, 655, 568, 585, 597, 591, 593, 593, 566]
,    [631, 629, 646, 641, 628, 642, 645, 623, 598, 609, 601, 624, 619, 611, 611, 620, 585, 588, 599, 596, 602, 586, 584, 591, 682, 682, 677, 682, 676, 685, 684, 650, 663, 660, 667, 664, 689, 655, 655, 655, 569, 585, 597, 591, 592, 592, 567]
,    [628, 628, 644, 639, 628, 641, 645, 623, 597, 608, 599, 621, 617, 610, 610, 619, 584, 587, 598, 595, 601, 586, 584, 591, 681, 681, 675, 680, 675, 684, 684, 649, 662, 661, 667, 665, 688, 654, 655, 655, 571, 586, 598, 592, 592, 592, 569]
,    [627, 626, 642, 637, 627, 639, 644, 622, 597, 607, 599, 621, 616, 609, 610, 618, 584, 587, 598, 595, 601, 586, 584, 591, 683, 683, 678, 682, 677, 686, 685, 651, 663, 661, 668, 666, 690, 656, 656, 656, 570, 587, 599, 593, 593, 593, 568]
,    [626, 625, 642, 638, 625, 639, 644, 622, 597, 608, 600, 622, 617, 609, 609, 619, 585, 588, 599, 596, 602, 587, 585, 593, 685, 685, 679, 684, 678, 687, 686, 652, 664, 662, 669, 666, 690, 656, 657, 657, 570, 587, 600, 593, 594, 594, 568]
  ],
  "zoomDataFormat": 1
}
